{
  "src_folders": ["nightwatch_ui_test"],

  "webdriver": {
    "start_process": true,
    "server_path": "./node_modules/chromedriver/bin/chromedriver",
    "port": 9515
  },
  "globals_path": "./globals.js",
  "test_settings": {
    "default": {
      "desiredCapabilities": {
        "browserName": "chrome"
      }
    }
  }
}
